<?xml version="1.0" encoding="utf-8"?>
<!-- Generator: Adobe Illustrator 16.0.0, SVG Export Plug-In . SVG Version: 6.00 Build 0)  -->
<!DOCTYPE svg PUBLIC "-//W3C//DTD SVG 1.1//EN" "http://www.w3.org/Graphics/SVG/1.1/DTD/svg11.dtd">
<svg version="1.1" id="Layer_1" xmlns="http://www.w3.org/2000/svg" xmlns:xlink="http://www.w3.org/1999/xlink" x="0px" y="0px"
	 width="29px" height="29.104px" viewBox="0 0 29 29.104" enable-background="new 0 0 29 29.104" xml:space="preserve">
<g>
	<defs>
		<rect id="SVGID_1_" x="2.799" y="5.729" width="19.639" height="12.856"/>
	</defs>
	<clipPath id="SVGID_2_">
		<use xlink:href="#SVGID_1_"  overflow="visible"/>
	</clipPath>
	<path clip-path="url(#SVGID_2_)" fill="#2BABE2" d="M10.796,18.585c-0.311,0-0.621-0.119-0.86-0.355l-6.782-6.781
		c-0.474-0.475-0.474-1.245,0-1.719c0.476-0.474,1.245-0.474,1.719,0l6.783,6.782c0.474,0.475,0.474,1.243,0,1.718
		C11.419,18.466,11.107,18.585,10.796,18.585"/>
	<path clip-path="url(#SVGID_2_)" fill="#2BABE2" d="M10.796,18.585c-0.311,0-0.621-0.119-0.86-0.355
		c-0.473-0.475-0.473-1.243,0-1.718L20.364,6.085c0.475-0.473,1.243-0.473,1.719,0c0.474,0.474,0.474,1.245,0,1.718L11.656,18.23
		C11.419,18.466,11.107,18.585,10.796,18.585"/>
</g>
</svg>
